IDAD;Pk;Player;Yrs
562;22; Marcus  Williams ;4
1473;19; Dee  Brown ;12
1512;4; Glen  Rice ;15
1521;13; Michael  Smith ;3
1522;14; Tim  Hardaway ;13
1565;3; Charles  Smith ;9
1830;32; Cedric  Henderson ;1
1961;1; Patrick  Ewing ;17
2037;77; Arvydas  Sabonis ;7
2039;79; Mark  Davis ;1
2447;97; Manute  Bol ;10
2618;42; Jeff  Taylor ;2
3336;98; Billy  Reid ;1
3345;107; Mark  Eaton ;11
3403;165; Charles  Jones ;15
3504;64; Gerald  Henderson ;13
3666;24; Larry  Johnson ;1
3670;28; Kim  Anderson ;1
3691;49; Eddie  Johnson ;10
3794;152; Ralph  Drollinger ;1
3849;37; Lars  Hansen ;1
3911;99; Mike  Dunleavy ;11
3929;117; Phil  Walker ;1
3933;121; Ralph  Drollinger ;1
4039;54; Bayard  Forrest ;2
4046;61; Phil  Hicks ;2
4061;76; Joe  Pace ;2
4121;136; Andre  McCarter ;3
4164;5; Bobby  Jones ;10
4361;24; Kevin  Stacom ;6
4382;45; Leonard  Gray ;3
4475;138; Harvey  Catchings ;11
4665;117; Ben  Kelso ;1
4992;9; George  Johnson ;3
5062;79; George  Johnson ;13
5112;129; Steve  Patterson ;5
5188;205; Randy  Smith ;12
5287;65; Jake  Ford ;2
5475;35; Sam  Williams ;2
5489;49; Rich  Jones ;1
5510;70; Wally  Anderzunas ;1
5602;162; Bud  Ogden ;2
5603;163; Herm  Gilliam ;8
5627;187; Johnny  Baum ;2
5678;24; Gary  Gregor ;4
5705;51; Mike  Lynn ;2
5750;96; Ed  Biedenbach ;1
5889;73; Roland  West ;1
5894;78; Bill  Turner ;6
5922;106; Paul  Long ;3
5959;31; Hank  Finkel ;9
6041;4; Luke  Jackson ;8
6056;19; Jerry  Sloan ;11
6067;30; Hank  Finkel ;9
6179;43; Larry  Jones ;2
6199;63; Freddie  Crawford ;5
6248;29; Reggie  Harding ;3
6253;34; Roger  Strickland ;1
6284;65; Jerry  Harkness ;1
6411;92; Kevin  Loughery ;11
6453;27; Ben  Warley ;5
6472;46; York  Larese ;1
6636;27; Johnny  Cox ;1
6763;67; Steve  Hamilton ;2
